…
``` r
gapminder %>% 
  filter(year == 1952) %>%
  arrange(desc(gdpPercap))
```

    ## # A tibble: 142 x 6
    ##    country        continent  year lifeExp       pop gdpPercap
    ##    <fct>          <fct>     <int>   <dbl>     <int>     <dbl>
    ##  1 Kuwait         Asia       1952    55.6    160000   108382.
    ##  2 Switzerland    Europe     1952    69.6   4815000    14734.
    ##  3 United States  Americas   1952    68.4 157553000    13990.
    ##  4 Canada         Americas   1952    68.8  14785584    11367.
    ##  5 New Zealand    Oceania    1952    69.4   1994794    10557.
    ##  6 Norway         Europe     1952    72.7   3327728    10095.
    ##  7 Australia      Oceania    1952    69.1   8691212    10040.
    ##  8 United Kingdom Europe     1952    69.2  50430000     9980.
    ##  9 Bahrain        Asia       1952    50.9    120447     9867.
    ## 10 Denmark        Europe     1952    70.8   4334000     9692.
    ## # ... with 132 more rows
…
